^C:\USERS\RUSLA\SOURCE\REPOS\ODDOREWEN\ODDOREWEN.CPP
C:\USERS\RUSLA\SOURCE\REPOS\ODDOREWEN\DEBUG\VC142.PDB
C:\USERS\RUSLA\SOURCE\REPOS\ODDOREWEN\DEBUG\VC142.IDB
C:\USERS\RUSLA\SOURCE\REPOS\ODDOREWEN\DEBUG\ODDOREWEN.OBJ
